{
    "homepage": "https://dbeaver.io/",
    "description": "Free multi-platform database tool for developers, SQL programmers, database administrators and analysts",
    "license": {
        "identifier": "Apache-2.0"
    },
    "version": "6.0.0",
    "architecture": {
        "64bit": {
            "url": "https://dbeaver.io/files/6.0.0/dbeaver-ce-6.0.0-win32.win32.x86_64.zip",
            "hash": "dfa8de9ecd6617bb025c6d55bab108a2d4be7e30206cb4a5723a3c88ceac141d"
        },
        "32bit": {
            "url": "https://dbeaver.io/files/6.0.0/dbeaver-ce-6.0.0-win32.win32.x86.zip",
            "hash": "069e68bcb6d8278d48fef5548a63995e130d4d97ccb13044ab722d7a9a541a25"
        }
    },
    "extract_dir": "dbeaver",
    "bin": [
        "dbeaver.exe",
        "dbeaver-cli.exe"
    ],
    "persist": "workspace",
    "post_install": "@(\"-data\", \"workspace\") +  (Get-Content \"$dir\\dbeaver.ini\") | Set-Content \"$dir\\dbeaver.ini\"",
    "checkver": {
        "url": "https://dbeaver.io/download/",
        "regex": "Community Edition ([\\d.]+)"
    },
    "autoupdate": {
        "architecture": {
            "64bit": {
                "url": "https://dbeaver.io/files/$version/dbeaver-ce-$version-win32.win32.x86_64.zip",
                "hash": {
                    "url": "https://dbeaver.io/files/$version/checksum/dbeaver-ce-$version-win32.win32.x86_64.zip.sha256"
                }
            },
            "32bit": {
                "url": "https://dbeaver.io/files/$version/dbeaver-ce-$version-win32.win32.x86.zip",
                "hash": {
                    "url": "https://dbeaver.io/files/$version/checksum/dbeaver-ce-$version-win32.win32.x86.zip.sha256"
                }
            }
        }
    },
    "shortcuts": [
        [
            "dbeaver.exe",
            "DBeaver"
        ]
    ]
}
