{
    "homepage": "https://osdn.net/projects/ttssh2/",
    "description": "An open source free software terminal emulator supporting UTF-8 protocol",
    "license": {
        "identifier": "BSD-3-Clause,GPL-2.0-only"
    },
    "version": "4.102",
    "url": "https://osdn.net/frs/redir.php?m=osdn&f=ttssh2%2F70691%2Fteraterm-4.102.zip#/teraterm-4.102.zip",
    "hash": "d423659a910024ec51a596f5ae30bcdaa7f0b8f999a08119563baf3712627e66",
    "extract_dir": "teraterm-4.102",
    "bin": [
        "ttermpro.exe",
        "ttpmenu.exe"
    ],
    "persist": [
        "TERATERM.INI",
        "KEYBOARD.CNF",
        "cygterm.cfg",
        "theme",
        "plugin"
    ],
    "post_install": "if ( Test-Path \"HKCU:\\Software\\Microsoft\\Windows NT\\CurrentVersion\\AppCompatFlags\\Layers\" ) { Write-Output \"Setting 'Override high DPI scaling behavior' to 'System Enhanced'\" ; New-ItemProperty -Path \"HKCU:\\Software\\Microsoft\\Windows NT\\CurrentVersion\\AppCompatFlags\\Layers\" -Name \"$dir\\ttermpro.exe\" -Value \"~ GDIDPISCALING DPIUNAWARE\" -PropertyType \"String\" -ErrorAction SilentlyContinue | Out-Null  ; New-ItemProperty -Path \"HKCU:\\Software\\Microsoft\\Windows NT\\CurrentVersion\\AppCompatFlags\\Layers\" -Name \"$dir\\ttpmenu.exe\" -Value \"~ GDIDPISCALING DPIUNAWARE\" -PropertyType \"String\" -ErrorAction SilentlyContinue | Out-Null }",
    "checkver": {
        "url": "https://osdn.net/projects/ttssh2/",
        "regex": "<a href=\"/projects/ttssh2/releases/(?<release>\\d+)\">Tera Term ([\\d\\.]+)</a>"
    },
    "autoupdate": {
        "url": "https://osdn.net/frs/redir.php?m=osdn&f=ttssh2%2F$matchRelease%2Fteraterm-$version.zip#/teraterm-$version.zip",
        "hash": {
            "url": "https://osdn.net/projects/ttssh2/downloads/$matchRelease/teraterm-$version.zip/",
            "regex": "<dd>([a-fA-F0-9]{64})</dd>"
        },
        "extract_dir": "teraterm-$version"
    },
    "uninstaller": {
        "script": [
            "Stop-Process -Name ttermpro -ErrorAction SilentlyContinue | Out-Null",
            "Stop-Process -Name ttpmenu -ErrorAction SilentlyContinue | Out-Null",
            "Remove-ItemProperty -Path \"HKCU:\\Software\\Microsoft\\Windows NT\\CurrentVersion\\AppCompatFlags\\Layers\" -Name \"$(appdir teraterm)\\current\\ttermpro.exe\" -ErrorAction SilentlyContinue | Out-Null",
            "Remove-ItemProperty -Path \"HKCU:\\Software\\Microsoft\\Windows NT\\CurrentVersion\\AppCompatFlags\\Layers\" -Name \"$(appdir teraterm)\\current\\ttpmenu.exe\" -ErrorAction SilentlyContinue | Out-Null"
        ]
    },
    "shortcuts": [
        [
            "ttermpro.exe",
            "Tera Term"
        ],
        [
            "ttpmenu.exe",
            "TeraTerm Menu"
        ]
    ]
}
